<?xml version="1.0" encoding="UTF-8"?>

<!--                  -=<<o#%@O[ dischargeDiagnosisSection.sch ]O@%#o>>=-
    
    - Teste la conformité de la section "Discharge Diagnosis" (1.3.6.1.4.1.19376.1.5.3.1.3.7)
    aux spécifications d'IHE PCC v3.0
    
    Historique :
    30/10/2013 : CRI : Création  dischargeDiagnosisSection20131030.sch
    
-->

<pattern xmlns="http://purl.oclc.org/dsdl/schematron" id="dischargeDiagnosisSection-errors">
    <rule context='*[cda:templateId/@root="1.3.6.1.4.1.19376.1.5.3.1.3.7"]'> 
        <!-- Verify that the template id is used on the appropriate type of object --> 
        <assert test='../cda:section'> 
            [dischargeDiagnosisSection] Ce composant ne peut être utilisé qu'en tant que section. 
        </assert> 
        <!-- Vérifier le code de la section --> 
        <assert test='cda:code[@code = "11535-2"]'> 
            [dischargeDiagnosisSection] Le code de la section doit être 11301-9 
        </assert> 
        <assert test='cda:code[@codeSystem = "2.16.840.1.113883.6.1"]'> 
            [dischargeDiagnosisSection] Le code de la section doit être tiré de la terminologie LOINC (2.16.840.1.113883.6.1). 
        </assert> 
        <assert test='.//cda:templateId[@root = "1.3.6.1.4.1.19376.1.5.3.1.4.5.2"]'> 
            <!-- Verify that all required data elements are present -->
            [dischargeDiagnosisSection] La section doit contenir des entrées 
            du type Problem Concern Entry   (1.3.6.1.4.1.19376.1.5.3.1.4.5.2).
            
        </assert> 
    </rule> 
</pattern>

