<?xml version="1.0" encoding="UTF-8"?>


<!--                  -=<<o#%@O[ RespiratoryPhysicalExam.sch ]O@%#o>>=-
    
    Teste la conformité de la section "Respiratory System" (1.3.6.1.4.1.19376.1.7.3.1.1.13.4)
    aux spécifications d'IHE PCC v3.0
    Note: Cette section est utilisée comme sous-section de la section IHE PCC v3.0 Coded Physical Exam Section
    (1.3.6.1.4.1.19376.1.5.3.1.1.9.15.1) et non telle quelle.
    
    Historique :
    24/06/11 : CRI : Création
    
-->

<pattern xmlns="http://purl.oclc.org/dsdl/schematron" id="RespiratoryPhysicalExam-errors">
    <title>IHE PCC v3.0 Respiratory System</title>
    
    <!-- ****** Contexte = section Système Respiratoire ****** -->
    <rule context='*[cda:templateId/@root="1.3.6.1.4.1.19376.1.5.3.1.1.9.30"]'>
        
        <!-- Verifier que le templateId n'est utilisé que pour une section -->
        <assert test='../cda:section'> 
            Erreur de Conformité PCC: Cet élément ne peut être utilisé que comme section.
        </assert>         
        <!-- Vérifier le code de la section --> 
        <assert test='cda:code[@code ="11412-4"]'> 
            Erreur de Conformité PCC: Le code de la section doit être 11412-4
        </assert> 
        <assert test='cda:code[@codeSystem = "2.16.840.1.113883.6.1"]'> 
            Erreur de Conformité PCC: L'élément 'codeSystem' doit être codé dans la nomenclature LOINC 
            (2.16.840.1.113883.6.1). 
        </assert>
        


    </rule>
</pattern>