<?xml version="1.0" encoding="UTF-8"?>
<!-- 
    IVL_TS.sch :
    Contenu :
        Règles de contrôle d'un intervalle de temps CDAr2, éventuellement réduit à un seul point   (type de données IVL_TS) 
        Ce pattern convient aussi au type TS, sachant que la conformité d'un élément à ce type restreint est prise en charge par le schéma CDA.xsd
    Paramètres d'appel :
        $elt : élément de type IVL_TS ou TS du standard CDAr2
        $vue_elt : chemin de l'élément time pour affichage dans le rapport d'erreur
        $nullFlavor (0/1) : nullFlavor autorisé (1) ou non (0)
    Historique :
        27/05/11 : FMY ASIP/PRAS : Création
        21/01/13 : FMY : contrôle que la date et heure ne va pas à une précision au delà de la seconde
-->
<pattern xmlns="http://purl.oclc.org/dsdl/schematron" id="IVL_TS" abstract="true">
    <p>
        Vérification de la conformité au CI-SIS d'un élément de type IVL_TS ou TS du standard CDAr2 :
        L'élément doit porter soit un attribut "value" soit un intervalle éventuellement semi-borné de sous-éléments "low", "high". 
        Alternativement, si l'attribut nullFlavor est autorisé, il doit porter l'une des valeurs admises par le CI-SIS. 
    </p>
    <rule context="$elt">
        <let name="L" value="string-length(@value)"/>
        <let name="mm" value="number(substring(@value,5,2))"/>
        <let name="dd" value="number(substring(@value,7,2))"/>            
        <let name="hh" value="number(substring(@value,9,2))"/>
        <let name="lzp" value="string-length(substring-after(@value,'+'))"/> 
        <let name="lzm" value="string-length(substring-after(@value,'-'))"/>
        <let name="lDH1" value="string-length(substring-before(@value,'+'))"/>
        <let name="lDH2" value="string-length(substring-before(@value,'-'))"/>
        <assert test="(
            ($L = 0) or
            ($L = 4) or 
            ($L = 6 and $mm &lt;= 12) or 
            ($L = 8 and $mm &lt;= 12 and $dd &lt;= 31) or 
            ($L &gt; 14 and $mm &lt;= 12 and $dd &lt;= 31 and $hh &lt; 24 and ($lzp = 4 or $lzm = 4) and $lDH1 &lt;= 14 and $lDH2 &lt;= 14)
            )">
            Erreur de conformité CI-SIS : <value-of select="$vue_elt"/>/@value = "<value-of select="@value"/>"  contient  
            une date et heure invalide, différente de aaaa ou aaaamm ou aaaammjj ou aaaammjjhh[mm[ss]][+/-]zzzz 
            en temps local du producteur.
        </assert>
        <assert test="(@* and not(*)) or (not(@*) and *)">
            Erreur de conformité CI-SIS : <value-of select="$vue_elt"/> doit contenir soit un attribut soit des éléments fils.
        </assert>
        <assert test="(
            (name(@*) = 'nullFlavor' and $nullFlavor and
            (@* = 'UNK' or @* = 'NASK' or @* = 'ASKU' or @* = 'NAV' or @* = 'MSK')) or
            (name(@*) != 'nullFlavor') 
            )">
            Erreur de conformité CI-SIS : <value-of select="$vue_elt"/> contient un 'nullFlavor' non autorisé ou porteur d'une valeur non admise.
        </assert>  
    </rule> 

    <rule context="$elt/cda:low">
        <let name="L" value="string-length(@value)"/>
        <let name="mm" value="number(substring(@value,5,2))"/>
        <let name="dd" value="number(substring(@value,7,2))"/>            
        <let name="hh" value="number(substring(@value,9,2))"/>
        <let name="lzp" value="string-length(substring-after(@value,'+'))"/> 
        <let name="lzm" value="string-length(substring-after(@value,'-'))"/>
        <let name="lDH1" value="string-length(substring-before(@value,'+'))"/>
        <let name="lDH2" value="string-length(substring-before(@value,'-'))"/>
        <assert test="(
            ($L = 0) or
            ($L = 4) or 
            ($L = 6 and $mm &lt;= 12) or 
            ($L = 8 and $mm &lt;= 12 and $dd &lt;= 31) or 
            ($L &gt; 14 and $mm &lt;= 12 and $dd &lt;= 31 and $hh &lt; 24 and ($lzp = 4 or $lzm = 4) and $lDH1 &lt;= 14 and $lDH2 &lt;= 14)
            )">
            Erreur de conformité CI-SIS : <value-of select="$vue_elt"/>/low/@value = "<value-of select="@value"/>"  contient  
            une date et heure invalide, différente de aaaa ou aaaamm ou aaaammjj ou aaaammjjhh[mm[ss]][+/-]zzzz 
            en temps local du producteur.
        </assert>
    </rule>
    
    <rule context="$elt/cda:high">
        <let name="L" value="string-length(@value)"/>
        <let name="mm" value="number(substring(@value,5,2))"/>
        <let name="dd" value="number(substring(@value,7,2))"/>            
        <let name="hh" value="number(substring(@value,9,2))"/>
        <let name="lzp" value="string-length(substring-after(@value,'+'))"/> 
        <let name="lzm" value="string-length(substring-after(@value,'-'))"/>
        <let name="lDH1" value="string-length(substring-before(@value,'+'))"/>
        <let name="lDH2" value="string-length(substring-before(@value,'-'))"/>
        <assert test="(
            ($L = 0) or
            ($L = 4) or 
            ($L = 6 and $mm &lt;= 12) or 
            ($L = 8 and $mm &lt;= 12 and $dd &lt;= 31) or 
            ($L &gt; 14 and $mm &lt;= 12 and $dd &lt;= 31 and $hh &lt; 24 and ($lzp = 4 or $lzm = 4) and $lDH1 &lt;= 14 and $lDH2 &lt;= 14)
            )">
            Erreur de conformité CI-SIS : <value-of select="$vue_elt"/>/high/@value = "<value-of select="@value"/>"  contient  
            une date et heure invalide, différente de aaaa ou aaaamm ou aaaammjj ou aaaammjjhh[mm[ss]][+/-]zzzz 
            en temps local du producteur.
        </assert>
     </rule>       

</pattern>   