<?xml version="1.0" encoding="UTF-8"?>
<!-- 
    AVC_typeTraitementRt-PA20131025.sch :
    Contenu :
    Paramètres d'appel : Néant 
    Historique :
        25/10/2013 : CRI : Création
-->
<pattern xmlns="http://purl.oclc.org/dsdl/schematron" id="AVC_typeTraitementRt-PA" is-a="dansJeuDeValeurs">
    <param name="path_jdv" value="$jdv_AVC_typeTraitementRt-PA"/>
    <param name="vue_elt" value="ClinicalDocument/component/structuredBody/component/section/entry/substanceAdministration/code"/>
    <param name="xpath_elt" value="/cda:ClinicalDocument/cda:component/cda:structuredBody/cda:component/cda:section/cda:entry/cda:substanceAdministration/cda:code"/>
    <param name="nullFlavor" value="0"/>
</pattern>   


