<?xml version="1.0" encoding="UTF-8"?>

<!--                  -=<<o#%@O[ CSElaborAndDeliveryEnt.sch ]O@%#o>>=-
    
    Teste les entrées de la section PCC Labor and Delivery (1.3.6.1.4.1.19376.1.5.3.1.1.21.2.3) utilisée dans le volet du CI-SIS 
    "Certificats de santé de l'enfant du 8ème jour"
    
    Historique :
    25/07/11 : CRI : Création
    
-->

<pattern xmlns="http://purl.oclc.org/dsdl/schematron" id="CSElaborAndDeliveryEnt-errors">
    <title>CSE Labor and Delivery entries</title>

    <rule context="*[cda:templateId/@root='1.3.6.1.4.1.19376.1.5.3.1.1.21.2.3']">
        <!-- Attribution à la mère -->
        <assert test="cda:subject/cda:relatedSubject/cda:code/@code='MTH'"> 
        Erreur de conformité au volet CS8: La section "Labor and Delivery" dans le contexte du CS8 doit être attribué à la mère.</assert>
        
        <assert test="cda:component/cda:section[cda:templateId/@root='1.3.6.1.4.1.19376.1.7.3.1.1.13.7']/cda:entry/cda:observation/cda:code/@code='F-84640'"> 
        Erreur de conformité au volet CS8: Cette section doit mentionner le type du début du travail (F-84640).</assert>
        
        <assert test="cda:component/cda:section[cda:templateId/@root='1.3.6.1.4.1.19376.1.7.3.1.1.13.7']/cda:entry/cda:observation/cda:code/@code='CSE-029'"> 
            Erreur de conformité au volet CS8: Cette section doit mentionner l'analgésie utilisée au cours de l'accouchement(CSE-029).</assert>
        
        <assert test="cda:component/cda:section[cda:templateId/@root='1.3.6.1.4.1.19376.1.7.3.1.1.13.7']/cda:entry/cda:observation/cda:code/@code='XX-MCH219'"> 
            Erreur de conformité au voletCS8: Cette section doit mentionner le type d'accouchement réalisé (XX-MCH219).</assert>
    </rule>
</pattern>
