<?xml version="1.0" encoding="UTF-8"?>

<!--                  -=<<o#%@O[ CSERechHbs.sch ]O@%#o>>=-
    
    Teste les entrées des examens physiques relatifs à la recheche  du volet du CI-SIS Certificats de santé de l'enfant 
    CS9, et CS24" 
    
    Historique :
    27/06/11 : CRI : Création
    
-->


<pattern xmlns="http://purl.oclc.org/dsdl/schematron" id="CSERechHbs-errors">
    <title>IHE PCC v3.0 Ears</title>
    
    <!-- ****** Contexte = aNTENATAL TESTING BATTERY ****** -->
    
    <rule context='*[cda:templateId/@root="1.3.6.1.4.1.19376.1.5.3.1.1.21.3.10"]'>
        <assert test='.//cda:observation[cda:code/@code="5196-1"]/cda:value[@code="CSE-075" or @code="CSE-074" or @nullFlavor]'>
            [CSERechHbs] La recherche d'Ag Hbs doit être négative, positive, ou non faite. Dans ce dernier cas, l'élément nullFlavor doit être utilisé
        </assert>
    </rule>
</pattern>
