<?xml version="1.0" encoding="UTF-8"?>

<!--                  -=<<o#%@O[ encountersEntry.sch ]O@%#o>>=-
    
    Teste les entrées de l'entrée PCC Encounters (1.3.6.1.4.1.19376.1.5.3.1.4.14)
    
    25/07/11 : CRI : Création
    
-->



<pattern xmlns="http://purl.oclc.org/dsdl/schematron" id="encountersEntry-errors">


    <title>IHE PCC v3.0 Encounters - errors validation phase</title>
    <rule context="*[cda:templateId/@root='1.3.6.1.4.1.19376.1.5.3.1.4.14']">

        <assert test="@classCode='ENC'"> 
            Erreur de Conformité PCC: Dans une entrée "Encounters", l'attribut "classCode" sera fixé à la valeur "ENC". </assert>

        <assert test="not(@moodCode='EVN') or cda:templateId[@root='2.16.840.1.113883.10.20.1.21']"> 
            Erreur de Conformité PCC: Dans une entrée "Encounters", le templateId indique que cet élément 
            se conforme aux contraintes de ce module de contenu.
            NOTE: Lorsque l'entrée "Encounters",est en mode événement, (moodCode='EVN'), cette entrée 
            se conforme au template CCD 2.16.840.1.113883.10.20.1.21, et dans les autres modes, 
            elle se conformera au template CCD 2.16.840.1.113883.10.20.1.25. </assert>
        
        <assert test="@moodCode='EVN' or cda:templateId[@root='2.16.840.1.113883.10.20.1.25']"> 
            Erreur de Conformité PCC: Dans une entrée "Encounters", le templateId indique que cet élément 
            se conforme aux contraintes de ce module de contenu.
            NOTE: Lorsque l'entrée "Encounters",est en mode événement, (moodCode='EVN'), cette entrée 
            se conforme au template CCD 2.16.840.1.113883.10.20.1.21, et dans les autres modes, 
            elle se conformera au template CCD 2.16.840.1.113883.10.20.1.25. </assert>
        
        <assert test="cda:id"> 
        Erreur de Conformité PCC: Dans une entrée "Encounters", l'élément "id" est obligatoire. </assert>
        
          <!-- 
        <assert test="cda:code[@codeSystem='2.16.840.1.113883.5.4']"> 
        Error: In
            Encounters, code is a required element and shall contain a code from the HL7
            ActEncounterCode vocabulary describing the type of encounter (e.g., inpatient,
            ambulatory, emergency, et cetera). </assert>
          -->
        
        <assert test="cda:text/cda:reference"> 
            Erreur de Conformité PCC: Dans une entrée "Encounters", l'élément "text" contiendra
            une référence à la partie narrative décrivant l'événement. </assert>
        
        <assert test="not(@moodCode = 'EVN' or @moodCode = 'APT') or cda:effectiveTime"> 
            Erreur de Conformité PCC: Dans une entrée "Encounters", l'élément "effectiveTime" 
            horodate l'événement (en mode EVN), ou la date désirée pour la rencontre, en mode ARQ or APT.
            En mode EVN ou APT, l'élément "effectiveTime" sera présent. En mode ARQ, l'élément "effectiveTime" 
            pourra être présent, et dans le cas contraire, l'élément "priorityCode" sera présent, 
            pour indiquer qu'un rappel est nécessaire pour fixer la date de rendez-vous pour la rencontre. </assert>
        
        <assert test="@moodCode='ARQ' and (cda:effectiveTime or cda:priorityCode)"> 
            Erreur de Conformité PCC: Dans une entrée "Encounters", en mode ARQ mood, si l'élément "effectiveTime" est absent,
            alors l'élément "priorityCode" sera présent. </assert>
        
        <assert test="not(cda:participant[@typeCode='LOC']) or 
                cda:participant[@typeCode='LOC']/cda:participantRole[@classCode='SDLOC']"> 
            Erreur de Conformité PCC: Dans une entrée "Encounters", un élément "participant" avec un attribut "typeCode" 
            LOC pourra être présent pour donner l'indication sur le lieu où la rencontre doit ou s'est tenue. 
            Cet élément aura un élément "participantRole" d'attribut classCode='SDLOC' décrivant la localisation du service. </assert>
        
        <assert test="not(cda:particpant[@typeCode='LOC']) or
                cda:participant[@typeCode='LOC']/cda:playingEntity/cda:name"> 
            Erreur de Conformité PCC: Dans une entrée "Encounters", un élément "participant" d'attribut "typeCode='LOC'" 
            désignera un élément "playingEntity" avec son nom. </assert>
        
        <!-- Alertes -->

        <assert test="not(@moodCode='ARQ') or cda:effectiveTime"> 
            Erreur de Conformité PCC (alerte): Dans une entrée "Encounters", en mode ARQ, 
            l'élément "effectiveTime" doit être présent. </assert>
        
        <assert test="not(@moodCode='EVN') or cda:performer"> 
            Erreur de Conformité PCC (alerte): Dans une entrée "Encounters", en mode EVN mood, au moisn
            un élément "performer" devrait être présentpour identifier la personne délivrant un service (soins, consultation...)
            durant la rencontre. Plus d'un élément "performer" pourront être présents. </assert>
        
        <assert test="not(cda:particpant[@typeCode='LOC']) or
                cda:participant[@typeCode='LOC']/cda:addr"> 
            Erreur de Conformité PCC (alerte): Dans une entrée "Encounters", un élément "addr" devrait être présent
            comme partie de l'élément "participant" d'attribut "typeCode='LOC'". </assert>
        
        <assert test="not(cda:particpant[@typeCode='LOC']) or
                cda:participant[@typeCode='LOC']/cda:telecom"> 
            Erreur de Conformité PCC (alerte): Dans une entrée "Encounters", un élément "telecom" devrait être présent
            comme partie de l'élément "participant" d'attribut "typeCode='LOC'". </assert>
    </rule>
</pattern>
