<?xml version="1.0" encoding="UTF-8"?>
<!-- 

    Contrôle du code des codes statiques des entrées de la section Active Problems de SAP
    Paramètres d'appel : Néant 
    Historique :
    25/10/2013 : CRI :OBP_StaticSCEprocedures20131025.sch
-->
<pattern xmlns="http://purl.oclc.org/dsdl/schematron" id="OBP_StaticSCEprocedures" is-a="dansJeuDeValeurs">
    <p>Conformité des demandes d'examen complémentaires</p>
    <param name="path_jdv" value="$jdv_OBP_StaticSCEprocedures"/>
    <param name="vue_elt" value="ClinicalDocument/component/structuredBody/component/section/entry/procedure/code"/>
    <param name="xpath_elt" value="/cda:ClinicalDocument/cda:component/cda:structuredBody/cda:component/cda:section[cda:templateId/@root='1.3.6.1.4.1.19376.1.5.3.1.1.13.2.11']/cda:entry/cda:procedure/cda:code"/>
    <param name="nullFlavor" value="0"/>
</pattern>   



