<?xml version="1.0" encoding="UTF-8"?>
<!-- 
    OBP_PresentationFoetale20131025.sch :
    Contenu :
    Contrôle du code des modes de Naissance 
    Paramètres d'appel : Néant 
    Historique :
        25/10/2013 : CRI : Création
-->
<pattern xmlns="http://purl.oclc.org/dsdl/schematron" id="OBP_PresentationFoetale" is-a="dansJeuDeValeurs">
    <p>OBP_PresentationFoetale20131025.sch</p>
    <param name="path_jdv" value="$jdv_OBP_PresentationFoetale"/>
    <param name="vue_elt" value="ClinicalDocument/component/structuredBody/component/section/component/section/entry/observation/value"/>
    <param name="xpath_elt" value="/cda:ClinicalDocument/cda:component/cda:structuredBody/cda:component/cda:section/cda:component/cda:section/cda:entry/cda:observation[cda:code/@code='F-87000']/cda:value"/>
    <param name="nullFlavor" value="0"/>
</pattern>   

